<?xml version="1.0" encoding="utf-8"?>
<!-- Generator: Adobe Illustrator 18.1.1, SVG Export Plug-In . SVG Version: 6.00 Build 0)  -->
<!DOCTYPE svg PUBLIC "-//W3C//DTD SVG 1.1//EN" "http://www.w3.org/Graphics/SVG/1.1/DTD/svg11.dtd">
<svg version="1.1" xmlns="http://www.w3.org/2000/svg" xmlns:xlink="http://www.w3.org/1999/xlink" x="0px" y="0px"
	 viewBox="0 0 141.7 141.7" enable-background="new 0 0 141.7 141.7" xml:space="preserve">
<g id="Layer_2">
	<g>
		<path d="M70.9,3c37.4,0,67.9,30.4,67.9,67.9s-30.4,67.9-67.9,67.9S3,108.3,3,70.9S33.4,3,70.9,3 M70.9,0C31.7,0,0,31.7,0,70.9
			s31.7,70.9,70.9,70.9s70.9-31.7,70.9-70.9S110,0,70.9,0L70.9,0z"/>
	</g>
</g>
<g id="Layer_1">
	<path fill="none" d="M34.6,75.4c-0.2,0-0.3,0-0.4,0h-0.8c0.3,2.6,1.5,5.1,3.3,7.1c0.2,0.2,0.4,0.6,0.4,0.9l2,24.7
		c0.1,0.9,0.8,1.7,1.8,1.7h9.8c0.9,0,1.7-0.7,1.8-1.7l2-24.3c0-0.4,0.2-0.7,0.4-0.9c2-2,3.2-4.6,3.6-7.4H34.9
		C34.8,75.3,34.7,75.4,34.6,75.4z"/>
	<path fill="none" d="M110,48.8c0.1-0.8-0.2-1.6-0.7-2.2c-0.5-0.6-1.3-0.9-2.1-0.9H77.9c-0.8,0-1.5,0.3-2.1,0.9
		c-0.5,0.6-0.8,1.4-0.7,2.2l0.1,0.7H110L110,48.8z"/>
	<path fill="none" d="M34.3,72.3h23.1c0,0,0.1-0.1,0.1-0.1c1.1-0.4,1.8-1.3,1.8-2.4c0-0.8-0.4-1.5-1.2-2c-0.4-0.2-0.6-0.7-0.7-1.1
		c0-0.4,0.1-0.9,0.4-1.2c0.3-0.3,0.7-0.9,0.7-1.7c0-1-0.7-1.9-1.8-2.4c-0.5-0.2-0.8-0.6-0.9-1c-0.1-0.5,0-1,0.3-1.3
		c0.5-0.7,0.8-1.4,0.8-2.2c0-2.1-2-3.8-4.3-3.8c-0.7,0-1.4-0.5-1.5-1.2c-0.1-0.7,0.2-1.4,0.9-1.7c0.8-0.3,1.9-1.2,2-2.2
		c0.1-0.8-0.8-1.5-1.5-2c-4-2.5-4.5-6-4.4-9.3c-3.6,2.6-10,8.3-12,10.6c-2.2,2.7,0,6.2,0.1,6.4c0.2,0.2,0.2,0.5,0.2,0.8v0.2
		c0,0.7-0.5,1.3-1.1,1.4c-1.3,0.3-2.1,1.3-2.1,2.5c0,0.7,0.3,1.3,0.9,1.8c0.4,0.3,0.6,0.9,0.5,1.4c-0.1,0.5-0.4,1-0.9,1.2
		c-1.5,0.6-2.5,2-2.5,3.4C31.5,68.7,32.7,72,34.3,72.3z"/>
	<path fill="none" d="M80.1,108.4c0,0.5,0.4,0.8,0.9,0.8h23c0.5,0,0.9-0.4,0.9-0.8l4.8-55.9H75.4L80.1,108.4z"/>
	<path fill="none" d="M70.9,1.7c-38.2,0-69.2,31-69.2,69.2c0,38.2,31,69.2,69.2,69.2c38.2,0,69.2-31,69.2-69.2
		C140.1,32.7,109,1.7,70.9,1.7z M64.3,75.3h-2.8c-0.3,3.4-1.7,6.6-4.1,9.1l-1.9,23.8c-0.2,2.5-2.3,4.4-4.8,4.4h-9.8
		c-2.5,0-4.6-1.9-4.8-4.4l-1.9-24.2c-2.2-2.5-3.5-5.5-3.8-8.7h-2.8c-0.8,0-1.5-0.7-1.5-1.5c0-0.8,0.7-1.5,1.5-1.5h2.6
		c-1.1-1.8-1.6-4-1.6-5.9c0-2,1-3.9,2.7-5.2c-0.4-0.8-0.7-1.7-0.7-2.5c0-1.9,1.1-3.7,2.7-4.7c-0.8-1.9-1.7-5.4,0.8-8.5
		c2.3-2.8,9.5-9.1,13.3-11.7c0.8-0.6,1.9-0.6,2.8-0.1c0.8,0.5,1.3,1.4,1.3,2.3c-0.2,3.1-0.1,5.6,2.9,7.5c2.7,1.7,3.1,3.5,2.9,4.8
		c-0.1,0.9-0.5,1.8-1,2.5c2.4,1.1,4,3.4,4,6c0,0.9-0.2,1.8-0.6,2.7c1.3,1,2.1,2.6,2.1,4.3c0,0.9-0.2,1.8-0.7,2.5
		c0.8,1,1.3,2.2,1.3,3.5c0,0.9-0.2,1.7-0.6,2.5h2.5c0.8,0,1.5,0.7,1.5,1.5C65.8,74.7,65.1,75.3,64.3,75.3z M115.6,52.5h-2.9
		l-4.8,56.1c-0.2,2-1.9,3.6-3.9,3.6H81c-2,0-3.7-1.5-3.9-3.6l-4.8-56.1h-2.9c-0.8,0-1.5-0.7-1.5-1.5s0.7-1.5,1.5-1.5h2.6l0-0.5
		c-0.1-1.6,0.4-3.2,1.5-4.4c1.1-1.2,2.7-1.9,4.3-1.9h12.4V21.3c0-0.8,0.7-1.5,1.5-1.5s1.5,0.7,1.5,1.5v21.4h13.9
		c1.6,0,3.2,0.7,4.3,1.9c1.1,1.2,1.7,2.8,1.5,4.4l0,0.5h2.6c0.8,0,1.5,0.7,1.5,1.5S116.4,52.5,115.6,52.5z"/>
	<path d="M64.3,72.3h-2.5c0.4-0.8,0.6-1.6,0.6-2.5c0-1.3-0.5-2.5-1.3-3.5c0.4-0.8,0.7-1.7,0.7-2.5c0-1.7-0.8-3.2-2.1-4.3
		c0.4-0.8,0.6-1.8,0.6-2.7c0-2.6-1.6-4.9-4-6c0.6-0.7,1-1.6,1-2.5c0.1-1.3-0.3-3.2-2.9-4.8c-3-1.9-3.1-4.4-2.9-7.5
		c0.1-0.9-0.4-1.8-1.3-2.3c-0.9-0.5-2-0.5-2.8,0.1c-3.8,2.6-10.9,8.9-13.3,11.7c-2.6,3.1-1.7,6.6-0.8,8.5c-1.7,1-2.7,2.7-2.7,4.7
		c0,0.9,0.2,1.8,0.7,2.5c-1.7,1.3-2.7,3.2-2.7,5.2c0,1.8,0.6,4.1,1.6,5.9h-2.6c-0.8,0-1.5,0.7-1.5,1.5c0,0.8,0.7,1.5,1.5,1.5h2.8
		c0.3,3.2,1.6,6.3,3.8,8.7l1.9,24.2c0.2,2.5,2.3,4.4,4.8,4.4h9.8c2.5,0,4.6-1.9,4.8-4.4l1.9-23.8c2.3-2.5,3.8-5.7,4.1-9.1h2.8
		c0.8,0,1.5-0.7,1.5-1.5C65.8,73,65.1,72.3,64.3,72.3z M54.9,82.7c-0.2,0.2-0.4,0.6-0.4,0.9l-2,24.3c-0.1,1-0.8,1.7-1.8,1.7h-9.8
		c-1,0-1.7-0.7-1.8-1.7l-2-24.7c0-0.3-0.2-0.7-0.4-0.9c-1.8-2-3-4.4-3.3-7.1h0.8c0.2,0,0.3,0,0.4,0c0.1,0,0.2,0,0.3,0h23.5
		C58.1,78.1,56.9,80.7,54.9,82.7z M57.5,72.3c0,0-0.1,0-0.1,0.1H34.3c-1.6-0.4-2.8-3.7-2.8-5.9c0-1.5,1-2.8,2.5-3.4
		c0.5-0.2,0.8-0.6,0.9-1.2c0.1-0.5-0.1-1-0.5-1.4c-0.6-0.5-0.9-1.1-0.9-1.8c0-1.1,0.9-2.1,2.1-2.5c0.6-0.2,1.1-0.8,1.1-1.5v-0.2
		c0-0.3-0.1-0.6-0.2-0.8c-0.1-0.1-2.3-3.7-0.1-6.3c2-2.4,8.3-8,12-10.6c-0.1,3.3,0.4,6.8,4.4,9.3c0.7,0.5,1.6,1.2,1.5,2
		c-0.1,0.9-1.2,1.9-2,2.2c-0.7,0.2-1.1,1-0.9,1.7c0.1,0.7,0.8,1.2,1.5,1.2c2.4,0,4.3,1.7,4.3,3.8c0,0.8-0.3,1.6-0.8,2.2
		C56,59.5,55.9,60,56,60.5c0.1,0.5,0.5,0.9,0.9,1c1.1,0.4,1.8,1.3,1.8,2.4c0,0.8-0.4,1.3-0.7,1.7c-0.3,0.3-0.5,0.8-0.4,1.2
		c0,0.4,0.3,0.8,0.7,1.1c0.7,0.5,1.2,1.2,1.2,2C59.4,70.9,58.6,71.9,57.5,72.3z"/>
	<path d="M115.6,49.5H113l0-0.5c0.1-1.6-0.4-3.2-1.5-4.4c-1.1-1.2-2.7-1.9-4.3-1.9H93.3V21.3c0-0.8-0.7-1.5-1.5-1.5
		s-1.5,0.7-1.5,1.5v21.4H77.9c-1.6,0-3.2,0.7-4.3,1.9c-1.1,1.2-1.7,2.8-1.5,4.4l0,0.5h-2.6c-0.8,0-1.5,0.7-1.5,1.5s0.7,1.5,1.5,1.5
		h2.9l4.8,56.1c0.2,2,1.8,3.6,3.9,3.6h23c2,0,3.7-1.5,3.9-3.6l4.8-56.1h2.9c0.8,0,1.5-0.7,1.5-1.5S116.4,49.5,115.6,49.5z
		 M105,108.4c0,0.5-0.4,0.8-0.9,0.8H81c-0.5,0-0.9-0.4-0.9-0.8l-4.8-55.9h34.3L105,108.4z M110,49.5H75.1l-0.1-0.7
		c-0.1-0.8,0.2-1.6,0.7-2.2c0.5-0.6,1.3-0.9,2.1-0.9h29.3c0.8,0,1.5,0.3,2.1,0.9c0.5,0.6,0.8,1.4,0.7,2.2L110,49.5z"/>
</g>
</svg>
