<?xml version="1.0" encoding="utf-8"?>
<!-- Generator: Adobe Illustrator 18.1.1, SVG Export Plug-In . SVG Version: 6.00 Build 0)  -->
<!DOCTYPE svg PUBLIC "-//W3C//DTD SVG 1.1//EN" "http://www.w3.org/Graphics/SVG/1.1/DTD/svg11.dtd">
<svg version="1.1" xmlns="http://www.w3.org/2000/svg" xmlns:xlink="http://www.w3.org/1999/xlink" x="0px" y="0px"
	 viewBox="0 0 141.7 141.7" enable-background="new 0 0 141.7 141.7" xml:space="preserve">
<g id="Layer_2">
	<g>
		<path d="M70.9,3c37.4,0,67.9,30.4,67.9,67.9s-30.4,67.9-67.9,67.9S3,108.3,3,70.9S33.4,3,70.9,3 M70.9,0C31.7,0,0,31.7,0,70.9
			s31.7,70.9,70.9,70.9s70.9-31.7,70.9-70.9S110,0,70.9,0L70.9,0z"/>
	</g>
</g>
<g id="Layer_1">
	<path fill="none" d="M65.7,32.9c0.3,0.4,0.5,0.9,0.4,1.3l-1.6,8l7.3-3.6c0.2-0.1,0.4-0.2,0.7-0.2c0.2,0,0.5,0.1,0.7,0.2l7.2,4
		l-1.2-8.1c-0.1-0.5,0.1-1,0.5-1.3l6-5.6l-8.1-1.4c-0.5-0.1-0.9-0.4-1.1-0.8L73,18l-3.8,7.3c-0.2,0.4-0.7,0.7-1.1,0.8l-8.1,1
		L65.7,32.9z"/>
	<path d="M121.8,89.7H90.7V62.5c0-0.8-0.7-1.5-1.5-1.5H56.5c-0.8,0-1.5,0.7-1.5,1.5v20H23.8c-0.8,0-1.5,0.7-1.5,1.5v21.5
		c0,0.8,0.7,1.5,1.5,1.5h98c0.8,0,1.5-0.7,1.5-1.5V91.2C123.3,90.3,122.7,89.7,121.8,89.7z M55,104H25.3V85.5H55V104z M87.7,104H58
		V64h29.7V104z M120.3,104H90.7V92.7h29.7V104z"/>
	<path d="M90.3,26.3c-0.2-0.5-0.6-1-1.2-1l-10.3-1.7L74.4,14c-0.2-0.5-0.8-0.9-1.3-0.9c-0.6,0-1.1,0.3-1.4,0.8l-4.8,9.2l-10.4,1.3
		c-0.6,0.1-1,0.4-1.2,1c-0.2,0.5-0.1,1.1,0.3,1.5l7.3,7.5l-2,10.2c-0.1,0.6,0.1,1.1,0.6,1.5c0.4,0.3,1.1,0.4,1.6,0.2l9.4-4.7
		l9.1,5.1c0.2,0.1,0.5,0.2,0.7,0.2c0.3,0,0.6-0.1,0.9-0.3c0.5-0.3,0.7-0.9,0.6-1.5l-1.5-10.3l7.6-7.1C90.3,27.4,90.5,26.8,90.3,26.3
		z M79.7,33.2c-0.4,0.3-0.5,0.8-0.5,1.3l1.2,8.1l-7.2-4c-0.2-0.1-0.5-0.2-0.7-0.2c-0.2,0-0.5,0-0.7,0.2l-7.3,3.6l1.6-8
		c0.1-0.5,0-1-0.4-1.3l-5.7-5.8l8.1-1c0.5-0.1,0.9-0.4,1.1-0.8L73,18l3.5,7.4c0.2,0.5,0.6,0.8,1.1,0.8l8.1,1.4L79.7,33.2z"/>
</g>
</svg>
